{
  "type": "service_account",
  "project_id": "manifest-emblem-378009",
  "private_key_id": "12ad0e48096870d4fede8424da0052c58aad0607",
  "private_key": "-----BEGIN PRIVATE KEY-----\nMIIEvQIBADANBgkqhkiG9w0BAQEFAASCBKcwggSjAgEAAoIBAQCj8xR81N4nVLsC\nDY0Yrt0sKo03bSuQ2rPYQBiO/rhqOJAP4uQ9FJvDeSe+vYFdhKpZ0PcpxoDKQrLY\nzed4V/QJXB9VjV5sj/+gcY4tzjZmAeHXvg3HzWp9qWCKk4fMNxIvIU9vaHdZHaCL\ndYw7yk7xeBdkfGYyTg3GNs9l4rf2tiHXoPI/IObT9n31wIgmuIsgM9jiY358f24d\nNGKNOCVrVbckVmbJpO2VmzUFrAQ6ZKTEyRqPit9R/CkzDpL73m5IeNWRPisFNEbi\nmpQ0e+MinnVt3Kfjfh2r9gUfaBCK9Xrhvtj6Uf7gDgoM8DKHjrk4uHY7FxPs+Xmz\nwXA19AwlAgMBAAECggEAEg/Rjf8Vile3Un6TsMhy7U6yyAxq5EZz0bsd+YLuZiVd\nGaLxahk/H8XVLxpJijf3XHW9BQktXxsCAQiOG5/07qMLgK1WXbdvfgmElF9Hdu12\nKAJ0GjLzLGzgieO+7iyTAEY3LhrgKx0sdrC4hk2/bLLCQPvDdn9K3S9koeDcS32P\nx+/ElXIX7uNUxUrAE6ktjrR0Xd4QPc1jun8Qel7BhKKXHJ025nC8FYxAhPZTSblG\nb4PQIE1pF4XetnkZymq97MVgmLkSOMuHlI51QepTaWtNQvEfKfQuFB4bG3HMX5GA\nV52+OIoZkyWKdzBcWHnmMOLYwfJtO6wRt1mbC4tk8QKBgQDlPoPvieEZePWV+hsj\njs+TED9c3D4wY4e2FnTbUbvSnNUuCFUgW33siRz2EKTfUr6LmrzNd8+fC0vBmyAA\nKIwlMk35XBedEneQcUGG0lcrOiws7sLsa9CgRLK33yDGVfnhHZVpz/ZhTr4Swwqu\nKs3xGMVmbdPxajE4Db85Ry2u0wKBgQC3FaeO7uDew/uHYDgi+7ZvWBMCrbNXmtMS\nqJ3zic1PtUC4yrnPlydXDsAfbZ91diqPa8bRahRFELB3m6BGZatXbbNAHz/6qg8a\nAM5HqVsiJXpqB70LNS76V/BcFoyCLkAbW498Rkli8seconBiJuupP9LzRCSruehC\nqW/DTUmuJwKBgB4fzO6ZS78xKfR/XTma9qP4qprlRjbNnXPMF6cKYogWm9zks2sB\nGtcOXYPoRAIkuW1W9CB78giQT3AtllLvARuSNLTj6SZ22sdcWqQA1/uSNWPiLDMt\nJ8knveRzqbbmbWOro4q4DURUOJ32i1y/uzhHbQk8vXEn5zfadppsRBCJAoGAAO7d\nUb8p6ji5eXEmGBeMUHj0b9kOxu2FEd1GIM2c/EECOW7fD43Hp4vtsrtOSrz1bpGw\nC7UssUVqgNGMOY+fFez7MuJ14wMm3I0QgBD+4+eo/g1YC0yUFraIBRAgWzF9JiaL\nTqjVCuoN1mCFjhqArPYkTxUT0sQ5yM0wQqCMNZUCgYEApQ1XtY1HJeiEyUMjEXmF\nvNN9LxU/Xjg1kfiHeZvbAI+ZrWCNvjJ3gnADiwtAmX5g2GsB5suk2n9kfY4u70fq\n+rxrc3Yq+ANGsHVMvS/l4v9/W0mMlu5dnfqh5yLEvR3q/DSRmPeBg0rWPxrISouT\nZOpSnUlDBYB0L/WOCy6Tfbk=\n-----END PRIVATE KEY-----\n",
  "client_email": "firebase-adminsdk-8ji44@manifest-emblem-378009.iam.gserviceaccount.com",
  "client_id": "113957050832246796994",
  "auth_uri": "https://accounts.google.com/o/oauth2/auth",
  "token_uri": "https://oauth2.googleapis.com/token",
  "auth_provider_x509_cert_url": "https://www.googleapis.com/oauth2/v1/certs",
  "client_x509_cert_url": "https://www.googleapis.com/robot/v1/metadata/x509/firebase-adminsdk-8ji44%40manifest-emblem-378009.iam.gserviceaccount.com"
}
